{
  "project_info": {
    "project_number": "944878334456",
    "firebase_url": "https://mdschallene.firebaseio.com",
    "project_id": "mdschallene",
    "storage_bucket": "mdschallene.appspot.com"
  },
  "client": [
    {
      "client_info": {
        "mobilesdk_app_id": "1:944878334456:android:f85abda7f58ae4bc12660d",
        "android_client_info": {
          "package_name": "com.goldendevs.mdschallene"
        }
      },
      "oauth_client": [
        {
          "client_id": "944878334456-vjc99aq5hri81jh92vu098qjin3mmdfv.apps.googleusercontent.com",
          "client_type": 1,
          "android_info": {
            "package_name": "com.goldendevs.mdschallene",
            "certificate_hash": "32684dc5735cbff8bd973367e81f94579a61b620"
          }
        },
        {
          "client_id": "944878334456-dem2r0273t3pk7dmdip8ji1hl7v5060d.apps.googleusercontent.com",
          "client_type": 3
        }
      ],
      "api_key": [
        {
          "current_key": "AIzaSyD_TieTUlLmm9fOz7ZAr5YT1JuwQs3M7X8"
        }
      ],
      "services": {
        "appinvite_service": {
          "other_platform_oauth_client": [
            {
              "client_id": "944878334456-dem2r0273t3pk7dmdip8ji1hl7v5060d.apps.googleusercontent.com",
              "client_type": 3
            }
          ]
        }
      }
    }
  ],
  "configuration_version": "1"
}